{
  "appengine": {
    "aws_access_key_id": "AKIAIAEQIDOQZD4ZTAIA",
    "aws_region": "us-east-1",
    "aws_secret_access_key": "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",
    "cent_hittype_map": {
      "1": "3S76BV53LJJH8ZVHG0YQNJSCXV657R",
      "2": "3S3GY25K17B3ASMQ6IUFGS4T4EDZKX",
      "3": "3XMQ3UBY136EUY48RI6GVSH8TEIZL0",
      "4": "3JOPS26JUGAFAN51R23NYGQ5S0A7Y9",
      "5": "3NS4ESZ41PQLR0FG80U5DAMKMI1WQW",
      "6": "3QMCR5SRRUUI592IVYJAO4ZRW2UG40",
      "7": "3IEVTRZRYJF01S6I932KTW55WYPG55",
      "8": "31S093JAJ7BL31UGLFJ5I0WPI43WRX",
      "9": "3AXXFYZYN4XWKW6WEMCPL2J5ST0G6L",
      "10": "3JH21YRKZ6BBXNAIK3HB9E1U7IVJ0R"
    },
    "layout_id": "314E9ZG2QVY41RVWYQ1YQ8UI22UPEK",
    "mturk_host": "mechanicalturk.amazonaws.com",
    "no_turk_qualifications": false,
    "sqs_name": "turk",
    "sqs_path": "https://sqs.us-east-1.amazonaws.com/682770784995/turk"
  },
  "dev": {
    "aws_access_key_id": "AKIAI2UOT5E2YGIGLGNQ",
    "aws_region": "us-east-1",
    "aws_secret_access_key": "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",
    "cent_hittype_map": {
      "1": "3VQ8315AQ31CBRW9WOYV62SJE8NXOH",
      "2": "3JH21YRKZ89QDQZ1DZHJPSOM57T0J7",
      "3": "3NQ8A4S0YEXEPVKUTGNUGOJHJ19607",
      "4": "3BH55VSCCJCRXD2BBFE899K5WBQBJ4",
      "5": "3NWM3X0LA9JUWR8ABOBAV2X9ODJXPY",
      "6": "3XMLB3JQD85LOA5JVKHVQ7OZKWT0K6",
      "7": "3MCSZWKJ004EWK5CPZRUUT2ROTF61A",
      "8": "3PMOF0KIQJ8M8X8TT0EKAOKIB0QBK3",
      "9": "3D92QE1HWLQXA12F5I2B20DFS8J38L",
      "10": "325VGVP4D40W8GN1GKTW571E9WY0L9"
    },
    "layout_id": "30ASDUGRUGZFJ9XASY84ECTG32PATY",
    "mturk_host": "mechanicalturk.sandbox.amazonaws.com",
    "no_turk_qualifications": false,
    "sqs_name": "turk_sandbox",
    "sqs_path": "https://sqs.us-east-1.amazonaws.com/520621516669/turk_sandbox"
  },
  "prod": {
    "aws_access_key_id": "AKIAI2UOT5E2YGIGLGNQ",
    "aws_region": "us-east-1",
    "aws_secret_access_key": "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",
    "cent_hittype_map": {
      "1": "3NY2APCH3BPE4ABEGGGZR0M62WR9LA",
      "2": "3PGGMFI6D8BS2UVXAA7D5CGP710QOU",
      "3": "30GSXMI5ZWNGS6TOHVWQ9M772RVTAC",
      "4": "3KTTL66PWIIAFL5RSW6XRQIWC71HVR",
      "5": "3ISL4H6O6JHEC7AB7XTD1AVMRD0CIG",
      "6": "34ZB3R61XXINUA5WI6BTDS1AJG3HW1",
      "7": "3I6QNRBGCXHA7IUHPFEDDBAM4SPCJS",
      "8": "3SC1WC0NS545YOT8RSANANLQL1ZOBG",
      "9": "36ENCJ709L6KF0KD3RKK4EA24T2KES",
      "10": "3L9MTGB7CYMS4I1IU5D1WNHM505F9B"
    },
    "layout_id": "3P675GGUDKW27HICYJ3H8FV5V35WFG",
    "mturk_host": "mechanicalturk.amazonaws.com",
    "no_turk_qualifications": false,
    "sqs_name": "turk",
    "sqs_path": "https://sqs.us-east-1.amazonaws.com/520621516669/turk"
  }
}